From question to answer: stratification and outcome models
…
) |>
  mutate(
    update_frequency = factor(
      update_frequency,
      labels = c("weekly", "daily")
    ),
    customer_type = factor(
      customer_type,
      labels = c("free", "premium")
    )
  )
satisfaction1 |>
  select(update_frequency, customer_type, satisfaction)

# A tibble: 10,000 × 3
   update_frequency customer_type satisfaction
   <fct>            <fct>                <dbl>
 1 weekly           free               -0.804 
 2 weekly           free               -1.06  
 3 daily            premium            -0.0354
 4 daily            premium            -0.186 
 5 weekly           free               -0.500 
 6 daily            premium             0.475 
 7 weekly           premium             0.698 
 8 weekly           premium             1.47  
 9 weekly           premium             0.752 
10 weekly           free                1.26  
# ℹ 9,990 more rows
…
satisfaction2 |>
  select(update_frequency, customer_type, business_hours, customer_service, satisfaction) |>
  print(n = 5)

# A tibble: 10,000 × 5
  update_frequency customer_type business_hours
  <fct>            <fct>         <fct>         
1 daily            premium       yes           
2 daily            premium       yes           
3 daily            premium       no            
4 weekly           free          no            
5 daily            free          yes           
# ℹ 9,995 more rows
# ℹ 2 more variables: customer_service <fct>,
#   satisfaction <dbl>
…
satisfaction3

# A tibble: 10,000 × 3
   num_users update_frequency satisfaction
       <dbl> <fct>                   <dbl>
 1      351. daily                  -0.112
 2      351. daily                  -0.236
 3      157. daily                  38.6  
 4      277. daily                  14.7  
 5      436. daily                 -17.3  
 6      341. daily                   1.82 
 7      444. daily                 -18.8  
 8      374. daily                  -4.77 
 9      168. daily                  36.3  
10      447. daily                 -19.3  
# ℹ 9,990 more rows
…
