The Whole Game
…
Calculate inverse probability weights

library(broom)
library(propensity)
net_data_wts <- propensity_model |>
  augment(newdata = net_data, type.predict = "response") |>
  # .fitted is the value predicted by the model
  # for a given observation
  mutate(wts = wt_ate(.fitted, net))

net_data_wts |>
  select(net, .fitted, wts)

# A tibble: 1,752 × 3
   net   .fitted   wts
   <lgl>   <dbl> <dbl>
 1 FALSE   0.246  1.33
 2 FALSE   0.218  1.28
 3 FALSE   0.323  1.48
 4 FALSE   0.231  1.30
 5 FALSE   0.279  1.39
 6 FALSE   0.306  1.44
 7 FALSE   0.332  1.50
 8 FALSE   0.168  1.20
 9 FALSE   0.222  1.29
10 FALSE   0.255  1.34
# ℹ 1,742 more rows
…
